<svg xmlns="http://www.w3.org/2000/svg" viewBox="0 0 37.687794 7.3255424">
  <style>
    @font-face {
      font-family: "Realtime";
      src: url("34AEF6_0_0.eot");
      src: url("34AEF6_0_0.eot?#iefix") format("embedded-opentype"),
        url("34AEF6_0_0.woff2") format("woff2"),
        url("34AEF6_0_0.woff") format("woff"),
        url("34AEF6_0_0.ttf") format("truetype");
    }
  </style>
  <text x="77.052231" y="66.434525" fill="#fff" stroke-width=".26458332" letter-spacing="0" transform="translate(-58.21 -64.978)" word-spacing="0" text-anchor="middle" font-size="2.24022698" font-family="Realtime" style="line-height:125%;-inkscape-font-specification:Realtime;text-align:center">
    <tspan x="77.052231" y="66.434525" style="text-align:center;-inkscape-font-specification:Realtime">231 Swanston St Melbourne</tspan><tspan x="77.052231" y="69.23481" style="text-align:center;-inkscape-font-specification:Realtime">Sunday to Wednesday 11am - 10pm</tspan><tspan x="77.052231" y="72.035095" style="text-align:center;-inkscape-font-specification:Realtime">Thursday to Saturday 11am - 11pm</tspan>
  </text>
</svg>
