<svg xmlns="http://www.w3.org/2000/svg" viewBox="0 0 481.89444 132.31427">
  <defs>
    <clipPath id="c">
      <path d="M0 7000h1366V0H0z"/>
    </clipPath>
    <clipPath id="b">
      <path d="M0 7000h1366V0H0z"/>
    </clipPath>
    <clipPath id="a">
      <path fill="#000bac" stroke-width=".75" d="M0-1066.52h1366v-371.992H0z"/>
    </clipPath>
    <style>
      @font-face {
        font-family: "Geomanist-Black";
        src: url("geomanist-black-webfont.eot");
        src: url("geomanist-black-webfont.eot?#iefix")
            format("embedded-opentype"),
          url("geomanist-black-webfont.woff2") format("woff2"),
          url("geomanist-black-webfont.woff") format("woff"),
          url("geomanist-black-webfont.ttf") format("truetype");
      }
    </style>

  </defs>
  <path d="M0 0v-1067.498l35.943-39.214 35.946 39.215 35.94-39.215 35.94 39.215 35.94-39.215 35.94 39.215 35.94-39.215 35.94 39.215 35.94-39.215 35.95 39.215 35.94-39.215 35.94 39.215 35.94-39.215 35.94 39.215 35.94-39.215 35.94 39.215 35.95-39.215 35.95 39.215 35.94-39.215 35.95 39.215 35.94-39.215 35.94 39.215 35.95-39.215 35.94 39.215 35.95-39.215 35.95 39.215 35.95-39.215 35.95 39.215 35.95-39.215 35.95 39.215 35.95-39.215 35.94 39.215 35.95-39.215 35.95 39.215 35.95-39.215 35.95 39.215 35.96-39.215 35.95 39.215V0z" clip-path="url(#a)" fill="#005aff" transform="matrix(.35278 0 0 -.35278 0 -376.245)"/>
  <g clip-path="url(#b)" transform="matrix(.35278 0 0 -.35278 0 159.453)">
    <path d="M0 80v371.992-.978L35.944 411.8l35.945 39.214 35.94-39.214 35.94 39.214 35.95-39.214 35.94 39.214 35.95-39.214 35.94 39.214L323.5 411.8l35.95 39.214L395.4 411.8l35.948 39.214L467.3 411.8l35.946 39.214 35.94-39.214 35.944 39.214 35.948-39.214 35.943 39.214 35.95-39.214 35.95 39.214 35.94-39.214 35.95 39.214 35.95-39.214 35.95 39.214 35.95-39.214 35.95 39.214 35.95-39.214 35.95 39.214 35.95-39.214 35.95 39.214 35.95-39.214 35.95 39.214 35.95-39.214 35.96 39.214 35.95-39.214 35.95 39.214 35.96-39.214 35.95 39.214v.978V80z" fill="#fff8e6"/>
  </g>
  <g clip-path="url(#c)" transform="matrix(.35278 0 0 -.35278 0 159.452)">
    <path d="M403.774 206.815v1.73c.352.037.703.064 1.05.115.46.067.92.13 1.372.234.928.216 1.488.825 1.574 1.773.063.703.058 1.414.058 2.122.004 6.77.003 13.54 0 20.32 0 .52-.005 1.05-.04 1.58-.058.87-.56 1.42-1.32 1.78-.797.37-1.65.56-2.506.73-.046.01-.093.01-.14.02-.013 0-.026.01-.05.03v1.72h14.987v-1.74c-.29-.05-.58-.08-.86-.14-.49-.1-.99-.21-1.47-.33-1.13-.29-1.49-.85-1.6-1.9-.07-.63-.05-1.26-.06-1.89-.01-2.68-.01-5.36-.01-8.04v-.23h11.85c0 .03.01.07.01.11 0 3.15 0 6.31-.01 9.47 0 .48-.1.96-.39 1.36-.32.44-.78.7-1.27.9-.71.29-1.45.49-2.2.62-.03 0-.06.02-.11.03v1.74h14.98v-1.74c-.22-.03-.43-.04-.64-.08-.61-.12-1.22-.24-1.82-.38-.96-.22-1.44-.87-1.56-1.82-.03-.25-.06-.51-.06-.76V211.6c0-.4.05-.8.14-1.19.15-.67.62-1.106 1.23-1.33.53-.2 1.1-.317 1.66-.446.33-.08.67-.11 1.01-.165v-1.73h-14.96v1.74c.51.05 1.01.09 1.51.15.48.05.95.12 1.38.36.61.34.93.85 1.03 1.52.03.25.05.52.05.77v11h-11.85c0-.07-.01-.14-.01-.21 0-3.5-.01-6.99 0-10.49 0-.36.05-.72.13-1.07.17-.76.66-1.26 1.39-1.51.75-.26 1.53-.41 2.32-.52l.14-.02v-1.73zm133.163 10.93c0 1.97-.007 3.937.006 5.907.002.38-.07.733-.187 1.085-.056.17-.116.343-.184.51-.25.608-.556 1.182-1.064 1.623-1.29 1.118-3.155 1.18-4.4-.252-.583-.67-.983-1.44-1.293-2.262-.513-1.353-.73-2.767-.84-4.2-.11-1.437-.123-2.88-.005-4.318.108-1.31.333-2.592.883-3.798.354-.777.824-1.47 1.505-1.998.823-.64 1.772-.77 2.775-.646.384.048.753.156 1.096.344.61.34 1.1.827 1.55 1.364.11.135.16.272.16.45-.01 2.062-.01 4.127-.01 6.19m0 10.78v7.25c0 .548-.07 1.08-.25 1.604-.34 1-1.03 1.633-2.03 1.902-.65.173-1.31.26-1.97.385l-.18.027v1.65c.34.02.67.044 1.01.062l8.37.47c.31.016.63.035.94.052.26.013.51-.223.52-.483v-29.47c0-.4.03-.806.11-1.196.18-.845.69-1.41 1.55-1.596.52-.11 1.06-.16 1.59-.24.08-.01.17-.01.27-.02v-1.65c-.31-.02-.61-.05-.92-.07l-4.72-.32c-1.27-.08-2.53-.17-3.8-.25-.28-.02-.51.2-.51.48v1.9c-.15.09-.2-.02-.25-.08-.48-.56-1.03-1.03-1.65-1.45-.98-.66-2.03-1.16-3.22-1.33-.85-.12-1.69-.07-2.53.09-1.92.38-3.42 1.43-4.64 2.93-1.3 1.6-2.07 3.43-2.47 5.43-.34 1.68-.43 3.38-.28 5.08.22 2.6 1.16 4.9 2.84 6.9.8.94 1.7 1.75 2.79 2.35 1.38.77 2.87 1.08 4.45 1.03 1.53-.05 2.99-.39 4.36-1.08.17-.09.34-.19.56-.31m40.27 9.14c.27.32.58.62.83.96.23.31.49.44.87.4.37-.03.74-.01 1.11-.01.02 0 .03-.01.07-.02.05-3.63.1-7.27.16-10.93h-1.68c-.03.08-.07.18-.1.27-.52 1.5-1.09 2.99-1.78 4.42-.42.85-.89 1.67-1.5 2.4-.78.93-1.66 1.73-2.83 2.13-1.42.49-2.84.51-4.21-.15-1.24-.6-2.03-1.6-2.4-2.92-.27-.99-.26-1.99.05-2.98.29-.94.89-1.65 1.67-2.23.88-.66 1.87-1.11 2.9-1.51 1.65-.64 3.31-1.28 4.97-1.94 1.06-.42 2.07-.95 2.98-1.66 1.42-1.11 2.46-2.5 2.97-4.24.66-2.26.69-4.53-.08-6.78-.87-2.5-2.51-4.33-4.85-5.55-1.41-.74-2.91-1.14-4.48-1.28-1.38-.13-2.75-.1-4.12.11-1.69.27-3.29.83-4.82 1.6-.39.2-.77.43-1.17.65l-.71-.83c-.17-.2-.34-.41-.52-.61-.06-.05-.14-.12-.21-.12-.5-.01-1.01 0-1.56 0l-.26 11.63h1.67c.2-.51.38-1.03.59-1.53.63-1.54 1.34-3.05 2.3-4.43.79-1.13 1.69-2.14 2.81-2.97 1.14-.84 2.41-1.25 3.83-1.26.92 0 1.82.11 2.67.48.93.39 1.63 1.04 2.14 1.89.76 1.29.94 2.69.62 4.15-.21.96-.75 1.74-1.49 2.37-.84.71-1.8 1.22-2.82 1.61-1.43.56-2.87 1.08-4.3 1.64-.75.3-1.49.61-2.21.97-1.95.97-3.37 2.45-4.227 4.46-.45 1.06-.72 2.16-.82 3.31-.128 1.41-.03 2.79.43 4.13.85 2.48 2.423 4.33 4.793 5.48 1.994.98 4.1 1.29 6.292 1.12 1.81-.13 3.49-.72 5.11-1.49.42-.2.83-.44 1.27-.67m48.422-30.85v1.63c.3.04.58.09.87.12 1 .1 1.45.59 1.54 1.64.03.37.04.75.04 1.13v10.11c0 .84-.05 1.686-.278 2.506-.17.606-.425 1.17-.89 1.61-.42.4-.94.6-1.515.63-.98.06-1.85-.25-2.66-.8-.75-.51-1.3-1.2-1.78-1.96-.04-.06-.05-.16-.05-.24v-11.8c0-.48.023-.96.16-1.425.13-.48.43-.83.87-1.06.42-.22.87-.35 1.334-.45l.17-.03v-1.64H611.5v1.64l.57.07c.478.06.954.126 1.394.338.443.22.74.568.83 1.05.07.37.12.75.12 1.127.003 4.32 0 8.65 0 12.97 0 .86-.26 1.63-.8 2.29-.34.42-.78.67-1.28.81-.36.1-.73.18-1.11.27V229c.41.025.807.054 1.206.08l4.29.272 3.68.23c.19.012.43-.238.43-.468v-3.136l.04-.028c.06.05.123.097.18.153.605.606 1.2 1.226 1.82 1.82 1.58 1.514 3.503 2.07 5.65 1.99.75-.03 1.48-.166 2.184-.445.92-.364 1.666-.947 2.24-1.744.78-1.07 1.19-2.28 1.39-3.575.15-1 .14-2 .14-3 0-3.41 0-6.82.01-10.24 0-.33.07-.66.15-.98.1-.39.353-.66.693-.86.56-.33 1.167-.51 1.8-.62l.17-.03v-1.63zm-42.06 20.55v1.6l1.28.08 4.29.27 3.77.23c.15.01.33-.2.35-.4.004-.07 0-.14 0-.22v-14.7c0-.84.05-1.67.28-2.48.123-.45.31-.88.6-1.25.534-.7 1.25-1 2.12-.98.96.02 1.81.35 2.553.96.49.39.93.83 1.275 1.35.12.18.185.36.184.59-.01 3.7-.01 7.4-.01 11.1 0 .52 0 1.05-.07 1.57-.05.34-.18.67-.34.98-.31.61-.82.96-1.51 1.05-.46.06-.92.11-1.4.17v1.6c.14.01.27.03.41.04l4.46.28 4.452.27c.19.01.43-.25.44-.47v-17.26c0-.58.06-1.14.36-1.64.4-.67.98-1.07 1.76-1.17.36-.05.72-.09 1.09-.13v-1.64l-.73-.06c-1.21-.08-2.42-.17-3.63-.25l-3.72-.27c-.35-.03-.69-.05-1.04-.07-.28-.02-.5.19-.5.48v2.83c-.11-.08-.19-.12-.25-.18-.46-.476-.9-.977-1.38-1.43-1.05-.996-2.27-1.74-3.69-2.04-1.32-.28-2.66-.29-3.98.074-.92.25-1.71.744-2.35 1.46-.86.96-1.32 2.107-1.59 3.348-.22 1-.28 2.01-.28 3.03-.01 3.34-.01 6.68 0 10.02 0 .94-.31 1.72-.99 2.36-.32.3-.69.47-1.1.56-.37.08-.74.14-1.13.22m-86.99-8.29c-.022 0-.04.01-.06 0-1.06-.43-2.11-.9-3.08-1.53-.6-.39-1.13-.85-1.52-1.46-.41-.65-.65-1.36-.74-2.12-.1-.82-.1-1.63.1-2.44.15-.61.44-1.13.97-1.48.9-.6 1.84-.49 2.76-.05.58.28.99.77 1.39 1.27.08.11.11.21.12.35.02 2.44.05 4.88.07 7.32 0 .05-.01.1-.01.15m9.74-10.15c0-.53.01-1.03 0-1.52 0-.07-.05-.15-.11-.18-1.65-.79-3.37-1.26-5.22-1.08-.5.05-1 .12-1.49.24-1.26.31-2.09 1.13-2.574 2.32-.08.2-.144.4-.23.64-.08-.06-.157-.11-.216-.17-.44-.43-.84-.9-1.31-1.29-1.32-1.1-2.83-1.73-4.57-1.78-.71-.02-1.43-.04-2.13.15-2.05.58-3.42 1.88-3.91 3.98-.34 1.49-.24 2.978.32 4.41.47 1.18 1.26 2.09 2.35 2.75 1.13.68 2.34 1.154 3.57 1.595 1.31.47 2.64.9 3.95 1.38.59.21 1.14.49 1.71.74.11.05.16.113.16.25-.02 1.05-.02 2.11-.06 3.16-.02.75-.13 1.49-.47 2.18-.29.59-.71 1.07-1.36 1.31-.49.18-1 .17-1.51.11-.62-.07-1.145-.36-1.65-.71-.1-.07-.14-.15-.11-.28.14-.52.27-1.05.4-1.58.19-.79.27-1.59.01-2.4-.29-.91-.94-1.45-1.807-1.71-.83-.24-1.69-.23-2.53-.03-1.05.26-1.73.93-2.04 1.94-.35 1.17-.24 2.29.51 3.3.49.66 1.11 1.18 1.81 1.61 1.42.88 2.98 1.34 4.61 1.58 1.35.2 2.7.15 4.05.02.84-.08 1.67-.22 2.47-.49 1.93-.66 3.19-1.97 3.77-3.92.31-1.02.4-2.07.39-3.13-.04-2.7-.098-5.4-.14-8.105-.017-1-.03-2-.01-3 .01-.34.09-.69.2-1.02.24-.74.77-1.15 1.55-1.21.46-.04.93-.05 1.39-.07l.26-.01m-58.83 11.83l6.23.09c.012.05.03.077.03.1-.03 1.22-.06 2.44-.23 3.65-.11.77-.29 1.53-.65 2.23-.466.91-1.246 1.38-2.21 1.31-.768-.06-1.337-.47-1.788-1.06-.55-.73-.83-1.57-1.02-2.44-.22-1-.31-2.01-.37-3.02-.02-.27-.01-.55-.01-.86m12.25-7.3l1.48-1.24c-.12-.21-.23-.42-.35-.62-.75-1.24-1.64-2.365-2.79-3.265-1.216-.953-2.56-1.66-4.07-2.023-.945-.22-1.914-.273-2.885-.24-1.12.037-2.22.165-3.28.5-2.48.77-4.42 2.23-5.73 4.496-.86 1.49-1.31 3.11-1.53 4.8-.12.9-.17 1.805-.14 2.71.12 2.94.99 5.6 2.9 7.87 1.43 1.7 3.26 2.774 5.42 3.27 1.05.24 2.12.29 3.19.23.88-.05 1.76-.13 2.61-.38 2.74-.8 4.6-2.544 5.51-5.26.38-1.11.56-2.26.583-3.43.016-.58.02-1.165.028-1.75v-.27h-13.2c0-.39-.02-.76 0-1.12.07-1.26.21-2.52.56-3.75.28-.95.66-1.85 1.27-2.64.79-1.03 1.86-1.63 3.13-1.86.85-.16 1.71-.2 2.58-.02.85.176 1.59.56 2.27 1.104.92.743 1.66 1.645 2.28 2.65l.16.26m59.997-5.01v-1.64H507.4v1.63c.197.03.405.043.61.08.35.063.7.113 1.04.21.74.22 1.12.75 1.207 1.5.03.273.05.55.05.824v24.88c0 .65-.1 1.27-.36 1.87-.28.64-.736 1.09-1.377 1.35-.59.25-1.2.46-1.85.527-.03.004-.06.02-.1.03v1.634c.09.01.17.02.25.02l6.11.37 3.26.19c.25.013.497-.216.507-.47V211.4c0-.35.03-.71.09-1.052.11-.63.49-1.072 1.07-1.352.54-.265 1.11-.48 1.74-.542m-43.53-.01v-1.62H463.1v1.63c.29.04.59.07.88.12.25.04.51.09.76.16.75.22 1.16.74 1.22 1.51.045.524.05 1.05.05 1.58.005 4.11 0 8.22 0 12.33 0 .93-.33 1.72-.995 2.37-.306.3-.68.48-1.09.59-.36.1-.73.176-1.11.266V229c.35.03.684.05 1.02.07l3.326.21 4.13.27c.21.01.43.02.64.034.27.02.51-.2.52-.472v-3c0-.045.01-.09.06-.153.06.07.12.13.17.2.76.98 1.61 1.87 2.63 2.59 1.04.72 2.17 1.14 3.45 1.08 1.48-.07 2.54-.79 3.24-2.07.43-.79.58-1.64.59-2.53.02-1.07-.23-2.06-.81-2.96-.78-1.2-1.84-1.6-3.2-1.4-.66.1-1.25.37-1.75.81-.63.55-.89 1.28-.94 2.09-.05.75.03 1.49.22 2.22.01.05.02.11.03.2-.18-.03-.35-.05-.52-.09-.74-.18-1.35-.59-1.92-1.07-.43-.37-.8-.8-1.12-1.27-.05-.08-.08-.19-.08-.28v-12.34c0-.45.05-.89.23-1.31.26-.61.77-.92 1.38-1.05.65-.14 1.3-.23 1.95-.34l.18-.03m295.68 5.33l-5.22 42.88-.11.02-5-42.91h-12.22l-4.94 55.5h9.21l2.33-39.13h.11l4.01 39.15h12.84l4.5-39.02.14-.01c.72 12.99 1.44 25.98 2.17 39.01h9.01l-4.67-55.5zm-36.23 22l-2.54 24.29-.07-.01-2.59-24.28zm-8.98 33.44h12.55l7.86-55.43h-9.18c-.44 4.17-.88 8.37-1.32 12.59h-7.19l-1.39-12.58h-9.18l7.85 55.44m-13.04-26.14c.1-.08.14-.12.19-.14 2.815-1.47 4.03-3.92 4.25-6.97.32-4.41.34-8.83-.02-13.24-.104-1.28-.38-2.57-.76-3.81-.95-3.08-3.08-4.97-6.2-5.72-3.1-.74-6.22-.71-9.3.1-3.49.92-5.46 3.3-6.04 6.8-.27 1.6-.38 3.25-.43 4.88-.07 2.52-.02 5.04-.03 7.57 0 .09.01.19.02.31h8.51c0-1.83-.02-3.64.01-5.45.02-1 .04-2.01.21-3 .33-1.96 1.61-2.87 3.42-2.53.98.19 1.58.82 1.87 1.71.234.73.454 1.5.46 2.25.02 3.08-.04 6.15-.074 9.22 0 .24-.06.47-.11.7-.33 1.63-1.02 2.22-2.68 2.24-1.29.02-2.59.01-3.92.01v9.46c.42 0 .866-.02 1.31 0 1.02.06 2.05.07 3.06.22 1.65.25 2.37.99 2.445 2.67.09 2.07.08 4.14.035 6.2-.02.9-.165 1.81-.39 2.68-.346 1.32-1.08 1.82-2.51 1.88-1.32.06-2.3-.48-2.685-1.68-.27-.84-.38-1.76-.41-2.66-.07-1.53-.02-3.07-.02-4.65h-8.14c-.02.07-.06.16-.06.25.03 2.66.02 5.33.12 7.98.07 1.83.55 3.58 1.464 5.18 1.35 2.37 3.42 3.78 6.04 4.36 2.52.56 5.06.55 7.55-.17 3.824-1.11 6.15-3.68 6.79-7.6.665-4.1.57-8.25.154-12.38-.27-2.6-1.69-4.57-3.61-6.23-.16-.14-.32-.28-.49-.44m121.35-53.39c-2.23-1.25-4.39-2.64-6.68-3.74-6.7-3.21-13.81-5.13-21.1-6.43-9.61-1.72-19.3-2.18-29.04-1.83-7.17.25-14.3 1.01-21.39 2.17-13.37 2.19-26.35 5.76-38.83 11.07-8.98 3.82-17.51 8.44-25.23 14.46-2.327 1.81-4.52 3.79-6.77 5.7l.13.18c.16-.07.34-.12.49-.22 7.38-4.84 15.24-8.76 23.38-12.13 10.296-4.25 20.9-7.52 31.74-10.04 6.12-1.43 12.29-2.59 18.5-3.51 6.126-.91 12.277-1.56 18.45-1.95 6.84-.43 13.677-.53 20.517-.22 10.38.48 20.63 1.8 30.61 4.84 1.73.53 3.43 1.15 5.14 1.73.03-.03.06-.06.08-.09m-36.86 34.76c-.084 1.15-.12 2.55-.315 3.93-.16 1.17-.77 1.56-1.94 1.48-.95-.07-1.51-.56-1.58-1.72-.12-2.12-.11-4.25-.13-6.37-.003-.47.037-.95.138-1.41.194-.86.777-1.3 1.644-1.34 1.17-.05 1.85.48 1.983 1.7.13 1.15.14 2.32.215 3.73m5.1 12.6H798c0 .92.04 1.82-.01 2.71-.068 1.14-.683 1.81-1.607 1.86-1.01.06-1.78-.54-2.047-1.6-.06-.25-.125-.5-.126-.76-.01-2.28-.005-4.56-.005-6.92.34.38.61.74.93 1.04 1.65 1.54 4.676 1.4 6.47-.27 1.29-1.2 1.76-2.75 1.774-4.43.02-3.11.03-6.23-.1-9.34-.14-3.21-2.67-5.737-5.88-6.1-1.19-.137-2.36-.12-3.52.183-2.73.725-4.57 2.925-4.89 5.88-.13 1.21-.22 2.43-.22 3.65-.03 5.09-.03 10.17 0 15.257.01 1.31.09 2.645.33 3.93.63 3.39 2.69 5.19 6.14 5.36 1.12.056 2.29-.07 3.39-.33 2.07-.484 3.43-1.83 4.1-3.86.67-2.05.5-4.16.52-6.29m6.84-.5l.16-.01c0-1.06-.04-2.13.01-3.19.02-.453.16-.93.35-1.35.28-.612.81-.96 1.5-.972.7-.02 1.3.29 1.59.926.23.51.4 1.09.41 1.64.05 1.89.04 3.78 0 5.67-.02.58-.17 1.17-.33 1.73-.16.54-.54.9-1.11 1.04-1.17.288-2.11-.24-2.3-1.48-.21-1.31-.22-2.66-.31-3.99m-5.41-12.78h5.45c0-.67-.01-1.32 0-1.96.01-.47.02-.94.09-1.41.17-1.14.82-1.69 1.91-1.68 1.12.02 1.77.56 1.88 1.71.09 1.02.1 2.04.11 3.07.01 1.63 0 3.27 0 4.98-.12-.09-.2-.13-.25-.2-2-2.77-6.15-2.06-7.78.8-.63 1.1-.94 2.3-1.05 3.54-.26 2.93-.28 5.87.09 8.79.57 4.48 3.85 6.53 7.92 6.21 3.65-.28 5.56-2.59 6.15-5.94.15-.91.25-1.84.25-2.76.02-5.6.03-11.2 0-16.8-.01-1.172-.1-2.37-.35-3.52-.66-3.12-2.99-5.08-6.19-5.32-1.27-.09-2.52.02-3.73.45-2.29.81-3.77 2.41-4.15 4.8-.28 1.714-.27 3.474-.38 5.254m16.28 1.42h5.59c0-1.08-.02-2.14 0-3.2.01-.61.01-1.23.12-1.82.19-1.06.8-1.57 1.75-1.58.96-.01 1.64.48 1.78 1.54.16 1.26.2 2.55.21 3.83.01.98-.06 1.97-.19 2.94-.13.96-.64 1.36-1.62 1.38-.85.02-1.7.01-2.59.01v5.62c.91.06 1.83.08 2.75.18 1.07.12 1.56.55 1.58 1.63.04 1.64.01 3.3-.14 4.94-.09 1.067-.7 1.47-1.72 1.48-1.03.008-1.63-.45-1.84-1.47-.1-.472-.09-.973-.1-1.463-.02-.807-.01-1.61-.01-2.45h-5.29c.06 2.2-.22 4.393.37 6.54.67 2.45 2.7 4.03 5.51 4.26 1.45.125 2.91.1 4.32-.39 2.3-.8 3.75-2.385 3.96-4.81.18-2.228.16-4.48.09-6.72-.04-1.48-.81-2.695-1.92-3.67l-.73-.64c.26-.16.493-.296.72-.44 1.09-.7 1.803-1.68 1.97-2.958.43-3.297.46-6.61-.04-9.897-.4-2.63-2.01-4.2-4.64-4.68-1.84-.33-3.69-.32-5.52.1-2.42.56-3.83 2.12-4.07 4.55-.23 2.37-.225 4.757-.327 7.207M790.78 208l-2.46-8.44h-2.346l-1.196 5.64-.08.01-1.21-5.68c-.71 0-1.4-.016-2.084.01-.128.007-.326.156-.36.277-.773 2.66-1.525 5.33-2.28 7.996-.008.034.007.076.015.15h2.26l1.21-5.89.13-.02 1.26 5.907h2.21l1.26-5.88c.03-.01.07-.017.11-.023.1.452.21.905.3 1.36.29 1.39.57 2.774.84 4.166.06.31.18.43.5.42.6-.02 1.21 0 1.92 0" fill="#005aff"/>
    <path d="M761.657 207.97c.726 0 1.43.024 2.132-.017.16-.008.35-.21.45-.37.85-1.397 1.67-2.804 2.51-4.207.09-.16.2-.312.4-.622v5.19h2.14v-8.432c-.71 0-1.41-.022-2.11.017-.16 0-.36.2-.46.36-.85 1.41-1.68 2.84-2.52 4.26-.1.16-.21.32-.39.61v-5.22h-2.17zm9.32-8.424v8.41h7.073v-1.74h-4.76v-1.467h4.335V203h-4.335v-1.57h4.872v-1.887zm59.737 3.467c-.765-.482-1.127-1.077-.997-1.953.07-.48.013-.98.013-1.508h-2.287v8.385h2.29v-3.194c.943 1.036 1.754 1.962 2.612 2.845.2.206.554.347.847.367.737.05 1.48.017 2.385.017l-3.392-3.217c1.3-1.802 2.508-3.47 3.787-5.242-.97 0-1.842-.017-2.713.017-.15.004-.32.203-.42.35-.72 1.034-1.42 2.08-2.13 3.133m-39.61-.677h2.28c.34-1.198 1.64-1.722 2.71-1.083.2.12.41.424.41.64 0 .21-.23.523-.44.607-.6.242-1.24.38-1.85.58-.56.183-1.14.33-1.66.602-1.52.8-1.63 2.74-.23 3.74 1.31.94 3.75.99 5.11.1.74-.487 1.1-1.14 1.11-2.05h-2.22c-.37.865-1.33 1.258-2.18.842-.2-.097-.4-.353-.43-.557-.02-.16.19-.448.36-.518.52-.21 1.09-.33 1.63-.5.62-.2 1.26-.34 1.84-.62 1.59-.77 1.79-2.85.42-3.97-1.41-1.15-4.58-1.14-5.95.03-.64.54-.93 1.25-.94 2.14m24.41.32l-1.01 3.01-1.01-3.01zm3.53-3.15c-.42 0-.77.04-1.09-.01-.97-.16-1.62.1-1.79 1.17-.02.13-.29.32-.45.32-.81.03-1.62.03-2.43-.01-.17-.01-.4-.2-.49-.37-.18-.35-.29-.73-.43-1.11H810c.326.82.635 1.6.942 2.38.734 1.86 1.475 3.73 2.193 5.6.134.35.306.5.687.47.624-.05 1.388.16 1.836-.13.422-.28.52-1.06.744-1.63.875-2.21 1.743-4.42 2.647-6.72m-8.07 8.41v-1.85h-2.62v-6.54h-2.34V206h-2.66v1.86zm11.07.01v-6.5h4.13v-1.89h-6.43v8.38zm12.87-18.16l.14.02-.06-.11-.09.09" fill="#005aff"/>
    <path d="M815.52 202.66h-2.024c.328.978.64 1.91 1.012 3.015l1.01-3.014" fill="#005aff"/>
    <path d="M1020.312 83.993h3.912l.735 3.102-2.8-.17-.08-.01h-2.47zm3.926-5.066c-.203 0-.33.127-.39.202l-1.58 2.04-1.583-2.04c-.058-.08-.187-.21-.388-.21h-43.652c-.275 0-.5.22-.5.5 0 5.28 1.928 10.38 5.428 14.35l1.396 1.59-1.67 1.3c-.07.05-.17.16-.19.31l-4.58 31.34h-8.09c-.28 0-.5.22-.5.5v86.81l-37.96 91.57-.05.13-.02.1-.03.13c-.42 6.71-.72 20.85 1.05 27.27 1.85 6.69 8.14 7.44 10.03 7.51l1.23.04.51 1.12c5.81 12.67 18.54 20.87 32.44 20.87 5.19 0 10.22-1.11 14.93-3.29l.92-.43.89.49c9.2 5.07 19.65 7.75 30.23 7.75 6.8 0 13.53-1.1 19.99-3.25 3.56-1.19 7.02-2.71 10.28-4.5l.89-.49.92.42c4.71 2.17 9.72 3.28 14.91 3.28 13.9 0 26.64-8.2 32.45-20.88l.51-1.12 1.23-.05c1.88-.07 8.18-.82 10.02-7.51 1.77-6.42 1.46-20.58 1.05-27.27l-.04-.23-.04-.14-37.96-91.57v-86.8c0-.28-.23-.5-.5-.5h-8.09l-4.58-31.34c-.02-.12-.07-.22-.17-.3l-1.49-1.33 1.32-1.49c3.55-3.99 5.51-9.12 5.51-14.44 0-.28-.23-.5-.5-.5z" fill="#fff8e6"/>
    <path d="M1022.163 87.416v40.4m45.117.52l-4.568-31.274m-85.665 31.275l4.567-31.275m42.623-17.635h43.652c0 11.745-9.53 21.266-21.27 21.266h-1.12c-11.75 0-21.27-9.52-21.27-21.266zm-47.592 0h43.652c0 11.745-9.52 21.266-21.266 21.266h-1.11c-11.74 0-21.26-9.52-21.26-21.266zm46.778 175.73c4.02-10.696 15.947-16.11 26.644-12.092 10.697 4.02 16.11 15.947 12.092 26.644m-41.26-14.56c-4.02-10.7-15.95-16.11-26.65-12.09s-16.11 15.94-12.1 26.64m28.18 59.01c0 19.42-15.75 35.17-35.18 35.17s-35.18-15.75-35.18-35.18 15.75-35.17 35.17-35.17 35.17 15.75 35.17 35.17zm-59.88 0c0 13.62 11.08 24.7 24.7 24.7m129.14-24.71c0 19.43-15.75 35.17-35.18 35.17s-35.18-15.75-35.18-35.18 15.75-35.18 35.17-35.18 35.17 15.75 35.17 35.17zm-59.88 0c0 13.62 11.08 24.71 24.7 24.71m-68.72.18c14.48-9.93 28.97-9.93 43.46 0m-43.46-49.78c14.48 9.92 28.97 9.92 43.46 0m-4.9 61.98c-2.3-6.6-5.07-12.64-8.19-18.16m7.45-54.42c-7.92-7.42-24.64-7.42-32.56 0" fill="none" stroke="#005aff" stroke-width="5" stroke-linecap="round" stroke-linejoin="round" stroke-miterlimit="10"/>
    <path d="M1052.387 360.64c-3.24 1.8-6.714 3.336-10.397 4.564-17.478 5.83-35.94 3.49-50.635-4.906m-24.78-66.138c5.81-15.006 18.46-27.554 35.762-33.324 30.52-10.18 64.048 4.555 75.263 32.938m-135.164 48.048s-8.758.967-10.986-7.102c-2.23-8.067-1.03-27.225-1.03-27.225s11.49-20.56 31.147-22.573c0 0 7.824 4.747 3.434 9.9m136.9 47s8.76.967 10.99-7.102c2.23-8.067 1.03-27.225 1.03-27.225s-11.49-20.56-31.14-22.573c0 0-7.82 4.747-3.43 9.9" fill="none" stroke="#005aff" stroke-width="5" stroke-linecap="round" stroke-linejoin="round" stroke-miterlimit="10"/>
    <path d="M1113.905 307.495l-38.03-91.753V128.83H968.45v86.912l-38.03 91.753" fill="none" stroke="#005aff" stroke-width="5" stroke-linecap="round" stroke-linejoin="round" stroke-miterlimit="10"/>
    <path d="M599.373 315.927l-321.216-16.09L275 362.86l321.216 16.09z" fill="#005aff"/>
  </g>
  <text y="386.356" x="-448.572" transform="rotate(-2.868 -6937.513 -10942.826)" style="-inkscape-font-specification:Geomanist-Black" font-weight="900" font-size="15.169" font-family="Geomanist-Black" fill="#fff" stroke-width=".353">
    <tspan x="-448.57181 -437.923 -429.64062 -426.60678 -418.32437 -410.77011 -403.21585 -391.99063 -388.95679 -384.1785 -372.95328" y="386.356">AS SEEN IN…</tspan>
  </text>
</svg>
