<svg xmlns="http://www.w3.org/2000/svg" viewBox="0 0 347.13333 105.88707">
  <defs>
    <clipPath id="a">
      <path d="M0 7000h1366V0H0z"/>
    </clipPath>
    <style>
      @font-face {
        font-family: "Realtime";
        src: url("34AEF6_0_0.eot");
        src: url("34AEF6_0_0.eot?#iefix") format("embedded-opentype"),
          url("34AEF6_0_0.woff2") format("woff2"),
          url("34AEF6_0_0.woff") format("woff"),
          url("34AEF6_0_0.ttf") format("truetype");
      }
      @font-face {
        font-family: "Geomanist-Black";
        src: url("geomanist-black-webfont.eot");
        src: url("geomanist-black-webfont.eot?#iefix")
            format("embedded-opentype"),
          url("geomanist-black-webfont.woff2") format("woff2"),
          url("geomanist-black-webfont.woff") format("woff"),
          url("geomanist-black-webfont.ttf") format("truetype");
      }
    </style>
  </defs>
  <text y="42.19" x="118.542" style="-inkscape-font-specification:Geomanist-Black" font-weight="900" font-size="21.167" font-family="Geomanist-Black" fill="#fff" stroke-width=".353" transform="translate(-111.427 -27.098)">
    <tspan x="118.54185 132.78702 143.32802 153.86902 166.23035 172.89786 188.56119 204.79602 209.02936 215.69685 226.72469 230.95802 242.51501 253.54285 266.9202 277.46121 288.0022 299.03003 303.26337 314.82034 319.05368 332.8967 345.85071 359.48203 371.03903 375.27237 390.13135 394.36469 416.12402 426.66501 437.20602" y="42.19">KEEPING IT STREET 7 DAYS A WEEK</tspan>
  </text>
  <g clip-path="url(#a)" transform="matrix(.35278 0 0 -.35278 -67.38 506.45)">
    <path d="M1175 1135.45H191v200h984z" fill="#fff"/>
  </g>
  <text y="89.596" x="187.475" style="-inkscape-font-specification:Geomanist-Black" font-weight="900" font-size="11.995" font-family="Geomanist-Black" fill="#005aff" stroke-width=".353" transform="translate(-111.427 -27.098)">
    <tspan x="187.47459 194.47978 203.18829 210.50536 216.1311 219.90958 227.52652 229.92557 238.75401 248.37415 253.99989 257.77838 265.62323 272.96429 280.68918 283.08823 291.50885 300.38528 309.26172 318.88187 327.59036 336.4668 344.08374 350.05734 361.41678 367.39038 376.26682" y="89.596">PUBLIC HOLIDAY ANNOUNCEMENT</tspan>
  </text>
  <text y="104.419" x="152.614" style="-inkscape-font-specification:Realtime" font-size="8.467" font-family="Realtime" fill="#005aff" stroke-width=".353" transform="translate(-111.427 -27.098)">
    <tspan style="-inkscape-font-specification:Realtime" x="152.61383 157.10117 161.5885 166.07584 170.56317 175.05051 179.53784 184.02516 188.51251 192.99983 197.49564 201.98297 206.47031 210.95764 215.44498 219.9323 224.41965 228.90697 233.3943 237.88164 242.36896 246.85631 251.34363 255.83098 260.3183 264.80563 269.29297 273.7803 278.26764 282.75497 287.24231 291.72964 296.21698 300.70432 305.19165 309.67896 314.16632 318.65366 323.14096 327.6283 332.11563 336.60297 341.0903 345.57764 350.06494 354.55231 359.03964 363.52698 368.01431 372.50165 376.98898 381.47632 385.96365 390.45099 394.93832 399.42566 403.91296 408.40033 412.88763" y="104.419" font-family="Realtime">SORRY FOLKS, ALL OUR STORES WILL BE CLOSED ON CHRISTMAS DAY</tspan> <tspan style="-inkscape-font-specification:Realtime" x="170.56317 175.05051 179.53784 184.02516 188.51251 192.99983 197.48717 201.9745 206.46184 210.94917 215.43651 219.92384 224.41118 228.89851 233.38585 237.87317 242.3605 246.85631 251.34363 255.83098 260.3183 264.80563 269.29297 273.7803 278.26764 282.76346 287.25079 291.7381 296.22543 300.7128 305.2001 309.68744 314.17477 318.66211 323.14944 327.63678 332.12408 336.61142 341.09879 345.58609 350.07346 354.56076 359.04813 363.53543 368.02277 372.5101 376.99741 381.48477 385.97211 390.45947 394.94678" y="115.706" font-family="Realtime">BUT WE’LL BE BACK TO COOK UP A STORM ON BOXING DAY.</tspan>
  </text>
</svg>
