<?xml version="1.0" encoding="UTF-8" standalone="no"?>
<svg
   xmlns:dc="http://purl.org/dc/elements/1.1/"
   xmlns:cc="http://creativecommons.org/ns#"
   xmlns:rdf="http://www.w3.org/1999/02/22-rdf-syntax-ns#"
   xmlns:svg="http://www.w3.org/2000/svg"
   xmlns="http://www.w3.org/2000/svg"
   xmlns:xlink="http://www.w3.org/1999/xlink"
   xmlns:sodipodi="http://sodipodi.sourceforge.net/DTD/sodipodi-0.dtd"
   xmlns:inkscape="http://www.inkscape.org/namespaces/inkscape"
   id="svg36"
   viewBox="0 0 351.06915 73.181752"
   version="1.1"
   sodipodi:docname="keepingitstreet_bottom.svg"
   inkscape:version="0.92.2 (5c3e80d, 2017-08-06)">
  <metadata
     id="metadata28">
    <rdf:RDF>
      <cc:Work
         rdf:about="">
        <dc:format>image/svg+xml</dc:format>
        <dc:type
           rdf:resource="http://purl.org/dc/dcmitype/StillImage" />
        <dc:title></dc:title>
      </cc:Work>
    </rdf:RDF>
  </metadata>
  <sodipodi:namedview
     pagecolor="#ffffff"
     bordercolor="#666666"
     borderopacity="1"
     objecttolerance="10"
     gridtolerance="10"
     guidetolerance="10"
     inkscape:pageopacity="0"
     inkscape:pageshadow="2"
     inkscape:window-width="1920"
     inkscape:window-height="1017"
     id="namedview26"
     showgrid="false"
     inkscape:pagecheckerboard="true"
     inkscape:zoom="3.2358297"
     inkscape:cx="206.3589"
     inkscape:cy="-5.4593458"
     inkscape:window-x="-8"
     inkscape:window-y="-8"
     inkscape:window-maximized="1"
     inkscape:current-layer="g34" />
  <defs
     id="defs16">
    <clipPath
       id="c">
      <path
         id="path2"
         d="M0 7000h1366V0H0z" />
    </clipPath>
    <clipPath
       id="d">
      <path
         id="path5"
         d="M0 7000h1366V0H0z" />
    </clipPath>
    <clipPath
       id="b">
      <path
         id="path8"
         fill="#f60"
         stroke-width=".75"
         d="M87.286 787.912h1204.286V670.055H87.286z" />
    </clipPath>
    <clipPath
       id="a">
      <path
         id="path11"
         fill="#f60"
         stroke-width=".265"
         d="M170.704 2729.212h468.69v175.38h-468.69z" />
    </clipPath>
    <style
       id="style14">
      @font-face { font-family: "Geomanist-Black"; src: url("geomanist-black-webfont.eot"); src: url("geomanist-black-webfont.eot?#iefix") format("embedded-opentype"), url("geomanist-black-webfont.woff2") format("woff2"), url("geomanist-black-webfont.woff") format("woff"), url("geomanist-black-webfont.ttf") format("truetype"); }
    </style>
  </defs>
  <g
     id="g28"
     transform="matrix(.35278 0 0 -.35278 -65.413 248.41)"
     clip-path="url(#b)">
    <g
       id="g26"
       clip-path="url(#c)">
      <path
         id="path24"
         fill="none"
         stroke="#fff"
         stroke-width="11"
         stroke-miterlimit="10"
         d="M191 698.653h984"
         stroke-linecap="round"
         stroke-linejoin="round"
         stroke-dasharray="0 24" />
    </g>
  </g>
  <g
     id="g34"
     clip-path="url(#d)"
     transform="matrix(0.35278,0,0,-0.35278,-65.413,248.41)"
     style="fill:#ffffff">
    <path
       id="path30"
       d="m 669.438,556.71 c -8.147,0 -9.17,-0.036 -12.37,-0.182 -3.194,-0.145 -5.374,-0.652 -7.282,-1.394 -1.973,-0.767 -3.646,-1.793 -5.314,-3.46 -1.668,-1.668 -2.693,-3.34 -3.46,-5.314 -0.742,-1.908 -1.25,-4.09 -1.394,-7.282 -0.147,-3.2 -0.18,-4.222 -0.18,-12.37 0,-8.147 0.033,-9.168 0.18,-12.368 0.145,-3.194 0.652,-5.374 1.394,-7.282 0.767,-1.973 1.792,-3.646 3.46,-5.314 1.668,-1.668 3.34,-2.694 5.314,-3.46 1.908,-0.742 4.088,-1.25 7.282,-1.395 3.2,-0.15 4.222,-0.18 12.37,-0.18 8.147,0 9.17,0.03 12.37,0.18 3.193,0.14 5.373,0.65 7.28,1.39 1.974,0.76 3.647,1.79 5.315,3.46 1.668,1.67 2.693,3.34 3.46,5.31 0.742,1.91 1.25,4.09 1.394,7.28 0.147,3.2 0.18,4.22 0.18,12.37 0,8.142 -0.033,9.164 -0.18,12.364 -0.145,3.193 -0.652,5.374 -1.394,7.282 -0.767,1.97 -1.792,3.644 -3.46,5.312 -1.668,1.665 -3.34,2.69 -5.314,3.46 -1.91,0.74 -4.09,1.25 -7.29,1.392 -3.2,0.145 -4.22,0.18 -12.37,0.18 m 0,-5.406 c 8.01,0 8.96,-0.03 12.12,-0.177 2.922,-0.135 4.51,-0.624 5.57,-1.034 1.4,-0.544 2.4,-1.194 3.45,-2.243 1.05,-1.05 1.7,-2.05 2.24,-3.45 0.412,-1.056 0.9,-2.645 1.034,-5.57 0.144,-3.163 0.175,-4.11 0.175,-12.12 0,-8.01 -0.03,-8.96 -0.175,-12.125 -0.132,-2.926 -0.62,-4.514 -1.03,-5.57 -0.546,-1.4 -1.197,-2.4 -2.246,-3.45 -1.05,-1.05 -2.05,-1.7 -3.45,-2.245 -1.06,-0.41 -2.648,-0.9 -5.57,-1.032 -3.165,-0.143 -4.11,-0.174 -12.125,-0.174 -8.01,0 -8.96,0.03 -12.124,0.177 -2.924,0.135 -4.512,0.62 -5.57,1.035 -1.4,0.544 -2.4,1.195 -3.45,2.244 -1.05,1.05 -1.7,2.05 -2.244,3.45 -0.41,1.06 -0.9,2.646 -1.032,5.57 -0.145,3.165 -0.176,4.113 -0.176,12.124 0,8.01 0.03,8.96 0.172,12.122 0.134,2.925 0.622,4.514 1.033,5.57 0.544,1.4 1.195,2.4 2.244,3.45 1.05,1.05 2.05,1.7 3.45,2.245 1.057,0.41 2.645,0.9 5.57,1.03 3.165,0.147 4.113,0.177 12.124,0.177"
       inkscape:connector-curvature="0" />
    <path
       id="path32"
       d="m 669.438,516.71 c -5.522,0 -10,4.476 -10,10 0,5.52 4.478,10 10,10 5.522,0 10,-4.48 10,-10 0,-5.524 -4.478,-10 -10,-10 m 0,25.404 c -8.508,0 -15.405,-6.897 -15.405,-15.405 0,-8.51 6.897,-15.41 15.405,-15.41 8.508,0 15.405,6.9 15.405,15.4 0,8.5 -6.897,15.4 -15.405,15.4 m 19.614,0.61 c 0,-1.987 -1.612,-3.6 -3.6,-3.6 -1.99,0 -3.6,1.613 -3.6,3.6 0,1.987 1.61,3.6 3.6,3.6 1.988,0 3.6,-1.61 3.6,-3.6 m 45.882,-43.21 c 21.888,0 33.857,18.132 33.857,33.856 0,0.515 -0.01,1.03 -0.03,1.54 2.33,1.68 4.35,3.773 5.94,6.16 -2.13,-0.948 -4.42,-1.586 -6.83,-1.873 2.46,1.472 4.347,3.803 5.236,6.582 -2.3,-1.364 -4.845,-2.356 -7.555,-2.89 -2.17,2.313 -5.263,3.76 -8.686,3.76 -6.57,0 -11.9,-5.33 -11.9,-11.9 0,-0.935 0.104,-1.843 0.308,-2.714 -9.885,0.497 -18.66,5.233 -24.524,12.433 -1.022,-1.76 -1.61,-3.805 -1.61,-5.984 0,-4.126 2.1,-7.77 5.294,-9.903 -1.95,0.06 -3.786,0.596 -5.39,1.49 -0.002,-0.05 -0.002,-0.1 -0.002,-0.153 0,-5.765 4.1,-10.576 9.547,-11.667 -1,-0.27 -2.056,-0.42 -3.14,-0.42 -0.77,0 -1.515,0.078 -2.24,0.217 1.515,-4.727 5.908,-8.167 11.117,-8.264 -4.07,-3.192 -9.203,-5.094 -14.78,-5.094 -0.96,0 -1.91,0.055 -2.84,0.165 5.267,-3.374 11.52,-5.344 18.24,-5.344 m -126.435,0.46 v 23.262 h 7.81 l 1.167,9.065 h -8.976 v 5.79 c 0,2.624 0.73,4.413 4.49,4.413 h 4.8 v 8.11 c -0.83,0.11 -3.68,0.356 -6.994,0.356 -6.92,0 -11.66,-4.222 -11.66,-11.98 v -6.69 h -7.83 v -9.067 h 7.83 v -23.26 z"
       inkscape:connector-curvature="0" />
    <a
       id="a4873"
       xlink:href="https://www.facebook.com/hotstarmelb/"
       style="fill:#ffffff;opacity:0.01"
       target="_blank">
      <rect
         ry="9.6361475"
         transform="scale(1,-1)"
         y="-558.02777"
         x="580.50323"
         height="60.44487"
         width="48.180698"
         id="rect4863"
         style="opacity:0.5;fill:#ffffff;fill-opacity:1;stroke-width:2.83462787" />
    </a>
    <a
       id="a4876"
       xlink:href="https://www.instagram.com/hotstarmelb/"
       target="_blank"
       style="fill:#ffffff;opacity:0.01">
      <rect
         ry="6.4597273"
         transform="scale(1,-1)"
         y="-558.02777"
         x="637.44409"
         height="61.320873"
         width="65.700958"
         id="rect4867"
         style="opacity:0.5;fill:#ffffff;fill-opacity:1;stroke-width:2.6031909" />
    </a>
    <a
       id="a4879"
       xlink:href="https://twitter.com/hot_star_melb"
       target="_blank"
       style="opacity:0.01;fill:#ffffff">
      <rect
         ry="7.6593909"
         transform="scale(1,-1)"
         y="-553.64771"
         x="711.90515"
         height="56.940823"
         width="66.576958"
         id="rect4871"
         style="opacity:0.5;fill:#ffffff;fill-opacity:1;stroke-width:2.83462787" />
    </a>
  </g>
  <a
     id="a876"
     transform="translate(96.73,1.854)"
     xlink:href="mailto:eat@hotstarmelb.com.au"
     target="_blank">

    <text
       id="text4579"
       x="77.242188"
       y="24.129604"
       font-weight="bold"
       font-size="12"
       letter-spacing="0"
       word-spacing="0"
       style="font-weight:bold;font-size:12px;line-height:125%;font-family:Geomanist-Black;-inkscape-font-specification:'Geomanist Black, Bold';text-align:center;letter-spacing:0;word-spacing:0;text-anchor:middle;fill:#ffffff">
      <tspan
         id="tspan4577"
         x="77.242188"
         y="24.129604">
        <tspan
           id="tspan4573"
           x="77.242188"
           y="24.129604">EAT@HOTSTARMELB.COM.AU</tspan>
      </tspan>
    </text>
  </a>
  <text
     id="text4585"
     x="173.64687"
     y="44.374203"
     fill="#fff"
     font-weight="bold"
     font-size="12"
     font-family="Geomanist-Black"
     letter-spacing="0"
     word-spacing="0"
     text-anchor="middle"
     style="line-height:125%;-inkscape-font-specification:'Geomanist-Black, Bold';text-align:center">
    <tspan
       id="tspan4583"
       x="173.64687"
       y="44.374203">
      <tspan
         id="tspan4581"
         x="173.64687"
         y="44.374203">@HOTSTARMELB</tspan>
    </tspan>
  </text>
</svg>
